{
    "ipcMode": null,
    "executionRoleArn": "arn:aws:iam::xxxxxx:role/ecsTaskExecutionRole",
    "containerDefinitions": [
        {
            "dnsSearchDomains": null,
            "logConfiguration": null,
            "entryPoint": null,
            "portMappings": [
                {
                    "hostPort": 8080,
                    "protocol": "tcp",
                    "containerPort": 8080
                },
                {
                    "hostPort": 50000,
                    "protocol": "tcp",
                    "containerPort": 50000
                }
            ],
            "command": null,
            "linuxParameters": null,
            "cpu": 0,
            "environment": [],
            "resourceRequirements": null,
            "ulimits": null,
            "dnsServers": null,
            "mountPoints": [
                {
                    "readOnly": null,
                    "containerPath": "/bin/docker4.2.2.2",
                    "sourceVolume": "docker"
                },
                {
                    "readOnly": null,
                    "containerPath": "/var/jenkins_home",
                    "sourceVolume": "data"
                },
                {
                    "readOnly": null,
                    "containerPath": "/var/run/docker.sock",
                    "sourceVolume": "sock"
                }
            ],
            "workingDirectory": null,
            "secrets": null,
            "dockerSecurityOptions": null,
            "memory": 1024,
            "memoryReservation": null,
            "volumesFrom": [],
            "image": "jenkins/jenkins",
            "disableNetworking": null,
            "interactive": null,
            "healthCheck": null,
            "essential": true,
            "links": null,
            "hostname": null,
            "extraHosts": null,
            "pseudoTerminal": null,
            "user": null,
            "readonlyRootFilesystem": null,
            "dockerLabels": null,
            "systemControls": null,
            "privileged": null,
            "name": "jenkins-master"
        }
    ],
    "memory": null,
    "taskRoleArn": "arn:aws:iam::xxxxx:role/ecsTaskExecutionRole",
    "family": "jenkins",
    "pidMode": null,
    "requiresCompatibilities": [
        "EC2"
    ],
    "networkMode": "bridge",
    "cpu": null,
    "volumes": [
        {
            "name": "sock",
            "host": {
                "sourcePath": "/var/run/docker.sock"
            },
            "dockerVolumeConfiguration": null
        },
        {
            "name": "docker",
            "host": {
                "sourcePath": "/usr/bin/docker"
            },
            "dockerVolumeConfiguration": null
        },
        {
            "name": "data",
            "host": {
                "sourcePath": "/mnt/jenkins1"
            },
            "dockerVolumeConfiguration": null
        }
    ],
    "placementConstraints": []
}
